<?xml version="1.0" encoding="UTF-8" standalone="no"?>
<!-- Created with Inkscape (http://www.inkscape.org/) -->

<svg
   width="14.068733mm"
   height="38.604473mm"
   viewBox="0 0 14.068733 38.604473"
   version="1.1"
   id="svg133"
   inkscape:version="1.1.2 (b8e25be8, 2022-02-05)"
   sodipodi:docname="treble-clef.svg"
   xmlns:inkscape="http://www.inkscape.org/namespaces/inkscape"
   xmlns:sodipodi="http://sodipodi.sourceforge.net/DTD/sodipodi-0.dtd"
   xmlns="http://www.w3.org/2000/svg"
   xmlns:svg="http://www.w3.org/2000/svg">
  <sodipodi:namedview
     id="namedview135"
     pagecolor="#ffffff"
     bordercolor="#666666"
     borderopacity="1.0"
     inkscape:pageshadow="2"
     inkscape:pageopacity="0.0"
     inkscape:pagecheckerboard="true"
     inkscape:document-units="mm"
     showgrid="false"
     lock-margins="true"
     fit-margin-top="0.3"
     fit-margin-left="0.3"
     fit-margin-right="0.3"
     fit-margin-bottom="0.3"
     inkscape:zoom="5.5764816"
     inkscape:cx="26.540032"
     inkscape:cy="72.895426"
     inkscape:window-width="1920"
     inkscape:window-height="1027"
     inkscape:window-x="1440"
     inkscape:window-y="25"
     inkscape:window-maximized="0"
     inkscape:current-layer="layer1" />
  <defs
     id="defs130" />
  <g
     inkscape:label="Ebene 1"
     inkscape:groupmode="layer"
     id="layer1"
     transform="translate(-3.094,-1.1313595)">
    <path
       fill="#000000"
       style="opacity:0.2;stroke-width:0.264583"
       stroke="#000000"
       d="m 11.696211,1.56396 c -1.43589,-0.0373 -3.1152004,3.39143 -3.0593704,6.44922 0.013,0.93133 0.30691,2.82019 0.7358,5.19245 -2.70483,2.79955 -5.8457,5.67266 -5.8457,9.44245 -0.0431,3.45466 2.06825,7.85601 7.0776004,7.81367 0.76888,-0.005 1.46077,-0.10054 2.0754,-0.26458 0.45799,2.5109 0.76252,4.49262 0.76067,5.40808 0.0161,3.60892 -4.7254604,3.96611 -4.9527304,1.89177 0.99933,-0.0344 1.7944004,-0.82814 1.7944004,-1.80975 0,-1.00277 -0.8302604,-1.82033 -1.8605504,-1.82033 -0.56647,0 -1.0713,0.24871 -1.41367,0.63765 -0.008,0.008 -0.0172,0.0159 -0.0249,0.0238 -0.0773,0.082 -0.14234,0.17992 -0.20664,0.29104 -0.21114,0.35719 -0.34819,0.87048 -0.3556,1.60338 0,3.02154 7.6398504,4.96622 7.6398504,-0.99219 0.0119,-0.80169 -0.33285,-2.83634 -0.83503,-5.40015 5.45121,-1.97114 4.08173,-10.06475 -0.93424,-10.10285 -0.38894,0.004 -0.76385,0.0492 -1.12448,0.14076 -0.28575,-1.37504 -0.56145,-2.7096 -0.80222,-3.93594 1.90474,-1.87087 3.56791,-4.2926 3.5306,-8.75586 0.006,-3.20516 -1.06204,-5.77532 -2.19922,-5.81263 z m 0.33894,3.10065 c 0.64981,-0.0627 1.16575,0.54055 1.16575,1.86849 0.0526,2.28071 -1.54517,4.27249 -3.4477904,6.27565 -0.18203,-1.09722 -0.30136,-1.98622 -0.31432,-2.51354 0.054,-3.56288 1.5131504,-5.52609 2.5963604,-5.6306 z M 9.9928306,16.48805 c 0.2320404,1.19459 0.4826004,2.45321 0.7358004,3.72083 -3.3199904,1.1811 -4.9133104,5.80867 -0.20664,7.87956 -2.8688704,-2.44237 -1.4567904,-5.33347 0.61172,-5.83724 0.52017,2.59715 1.02817,5.15991 1.4388,7.37447 -0.55747,0.19579 -1.20808,0.30956 -1.96797,0.31485 -1.8999704,0 -5.6967404,-1.20914 -5.6967404,-5.78776 0,-3.83487 2.65827,-5.39326 5.08503,-7.66471 z m 1.6123704,5.68034 c 0.0828,-0.005 0.17251,-0.003 0.25611,0 3.45626,0 4.75986,5.48878 1.24037,7.24297 -0.43788,-2.20134 -0.9689,-4.72546 -1.49648,-7.24297 z"
       id="path9" />
  </g>
</svg>
